{
  "type": "object",
  "properties": {
    "appName": { "type": "string" },
    "templateId": { "type": "string" },
    "config": {
      "type": "object",
      "properties": {
        "database": {
          "type": "object",
          "properties": {
            "mongo": {
              "type": "object",
              "properties": {
                "url": { "type": "string" }
              },
              "required": ["url"]
            },
            "mysql": {
              "type": "object",
              "properties": {
                "url": { "type": "string" }
              },
              "required": ["url"]
            },
            "h2": {
              "type": "object",
              "properties": {
                "url": { "type": "string" }
              },
              "required": ["url"]
            },
            "postgresql": {
              "type": "object",
              "properties": {
                "url": { "type": "string" }
              },
              "required": ["url"]
            }
          },
          "oneOf": [
            { "required": ["mongo"] },
            { "required": ["mysql"] },
            { "required": ["h2"] },
            { "required": ["postgresql"] }
          ]
        },
        "framework": {
          "type": "object",
          "properties": {
            "springboot": {
              "type": "object",
              "properties": {
                "package_name": {
                  "type": "string"
                },
                "port": { "type": "string" },
                "entities": {
                  "type": "array",
                  "minItems": 1,
                  "uniqueItems": true
                }
              },
              "required": ["entities", "port", "package_name"]
            }
          },
          "required": ["springboot"]
        },
        "tracing": { 
          "type": "object",
          "properties": {
            "zipkin": {
              "type":"object"
            }
          },
          "required": ["zipkin"]
        },
        "discovery": {
          "type": "object",
          "properties": {
            "eureka": {
              "type": "object",
              "properties": {
                "url": { "type": "string" }
              },
              "required": ["url"]
            }
          },
          "required": ["eureka"]
        },
        "bpmn": {
          "type":"object",
          "properties":{
            "kogito": {
              "type":"object",
              "properties":{
                "bpmnConfig":{
                  "type":"array",
                  "minItems": 1,
                  "properties":{
                    "items":{
                      "bpmn2":{
                        "type":"string"
                      }
                    }
                  }
                }
              },
              "required":["bpmnConfig"]
            }
          },
          "required":["kogito"]
        },
        "dmn": {
          "type":"object",
          "properties":{
            "kogito": {
              "type":"object",
              "properties":{
                "dmnConfig":{
                  "type":"array",
                  "minItems": 1
                }
              },
              "required":["dmnConfig"]
            }
          },
          "required":["kogito"]
        }
      },
      "required": ["database", "framework"]
    }
  }
}
