[
    {
      "getsetmodel": {
        "name": "model",
        "depends": ["sharedmodel"],
        "path":""
      }
    },
    {
      "getsetmodel1": {
        "name": "model", 
        "depends": ["sharedmodel"],
        "path":""
      }
    },
    {
      "sharedmodel": {
        "name": "sharedmodel" 
      }
    },
    {
      "form": {
        "name": "form"
      }
    }
  ]