module <%=appName%>

go 1.14

require (
	github.com/go-kit/kit v0.10.0
	github.com/gofrs/uuid v3.3.0+incompatible
	github.com/prometheus/client_golang v1.3.0
	gopkg.in/mgo.v2 v2.0.0-20190816093944-a6b53ec6cb22
)
