[
    {
      "entity": {
        "name": "entity",
        "depends": ["dao"],
        "path":""
      }
    },
    {
      "dao": {
        "name": "dao", 
        "depends": [],
        "path":""
      }
    }
  ]
