[
    {
      "model": {
        "name": "model",
        "depends": [],
        "path":""
      }
    },
    {
      "dao": {
        "name": "dao", 
        "depends": [],
        "path":""
      }
    }
  ]
